<?xml version="1.0" encoding="UTF-8" standalone="no"?>
<!-- Created with Inkscape (http://www.inkscape.org/) -->

<svg
   xmlns:dc="http://purl.org/dc/elements/1.1/"
   xmlns:cc="http://creativecommons.org/ns#"
   xmlns:rdf="http://www.w3.org/1999/02/22-rdf-syntax-ns#"
   xmlns:svg="http://www.w3.org/2000/svg"
   xmlns="http://www.w3.org/2000/svg"
   xmlns:sodipodi="http://sodipodi.sourceforge.net/DTD/sodipodi-0.dtd"
   xmlns:inkscape="http://www.inkscape.org/namespaces/inkscape"
   width="48"
   height="48"
   viewBox="0 0 47.999999 48.000002"
   id="svg2"
   version="1.1"
   inkscape:version="0.91 r13725"
   sodipodi:docname="favicon.svg"
   inkscape:export-filename="/home/ndt/git/shortawedding/themes/hugo-wedding-theme/static/favicon.png"
   inkscape:export-xdpi="90"
   inkscape:export-ydpi="90">
  <defs
     id="defs4" />
  <sodipodi:namedview
     id="base"
     pagecolor="#ffffff"
     bordercolor="#666666"
     borderopacity="1.0"
     inkscape:pageopacity="0.0"
     inkscape:pageshadow="2"
     inkscape:zoom="15.839192"
     inkscape:cx="31.716792"
     inkscape:cy="43.255828"
     inkscape:document-units="px"
     inkscape:current-layer="layer1"
     showgrid="false"
     inkscape:window-width="3840"
     inkscape:window-height="2053"
     inkscape:window-x="0"
     inkscape:window-y="0"
     inkscape:window-maximized="1"
     fit-margin-top="0"
     fit-margin-left="0"
     fit-margin-right="0"
     fit-margin-bottom="0"
     units="px" />
  <metadata
     id="metadata7">
    <rdf:RDF>
      <cc:Work
         rdf:about="">
        <dc:format>image/svg+xml</dc:format>
        <dc:type
           rdf:resource="http://purl.org/dc/dcmitype/StillImage" />
        <dc:title></dc:title>
      </cc:Work>
    </rdf:RDF>
  </metadata>
  <g
     inkscape:label="Layer 1"
     inkscape:groupmode="layer"
     id="layer1"
     transform="translate(-169.63964,-789.67307)">
    <path
       style="fill:none;fill-rule:evenodd;stroke:#93bbbf;stroke-width:0.39866912;stroke-linecap:butt;stroke-linejoin:miter;stroke-miterlimit:4;stroke-dasharray:none;stroke-opacity:1"
       d="m 195.73326,836.20957 c -22.35395,-23.5642 -9.31151,-47.93951 -0.92548,-33.81569 20.83099,-27.32871 22.17851,6.63881 1.77977,33.6733 -31.04724,-46.08517 -11.05889,-37.02802 -2.42049,-32.24948 20.32707,-23.04117 22.15996,-18.96634 2.49168,32.1071 -9.15004,-17.81095 -38.91697,-57.68529 -0.21357,-31.11043 37.37996,-43.13907 -1.99871,21.27959 0.42715,31.3952 -1.09782,-11.60012 -39.3785,-58.68596 0.49833,-31.18163 32.09956,-37.40958 -0.14238,20.8352 -0.21357,31.25281 13.91146,-30.61971 22.61508,-54.01651 -0.7831,-32.8902 -55.38034,-35.15525 1.51874,23.13704 0.71191,33.45973 -13.76391,-21.14757 -37.06628,-49.87514 -3.2036,-33.17496 42.65659,-35.65405 8.48983,16.36763 5.5529,32.74781"
       id="path4138"
       inkscape:connector-curvature="0"
       sodipodi:nodetypes="ccccccccccccc" />
  </g>
</svg>
